Chapter 5 Manejando datos utilizando tidyverse | Introducción al análisis de datos utilizando R
…
class(dat) #Si miramos de que clase son los objetos cargados con el paquete Readr, nos damos cuenta que estos son de tipo tibble. Por esto, no hace sentido convertir un objeto cargado con Readr a un tibble, pero si podemos convertir un data frame convencional en un tibble.
- [1] "spec_tbl_df" "tbl_df"      "tbl"         "data.frame"
dat_conv <-read.csv("SantanderBIO.csv")

class(dat_conv)
- [1] "data.frame"
dat_tibble <- as_tibble(dat_conv)

class(dat_tibble)
- [1] "tbl_df"     "tbl"        "data.frame"

Hay dos diferencias entre un tibble y un data frame convencional: el método de impresión o print() y la forma de obtener subconjuntos.

dat_tibble #Tibble nos muestra hasta 10 observaciones para mantener la consola menos saturada. En caso de necesitar más de 10 observaciones puede indicarlo de la siguiente manera:
- # A tibble: 1,255 x 10
-    species   locality  municipality kingdom  phylum class order family taxonRank
-    <chr>     <chr>     <chr>        <chr>    <chr>  <chr> <chr> <chr>  <chr>    
-  1 Aciotis ~ El Aguila Cimitarra    Plantae  Trach~ Magn~ Myrt~ Melas~ SPECIES  
-  2 Adiantum~ El Aguila Cimitarra    Plantae  Trach~ Poly~ Poly~ Pteri~ SPECIES  
-  3 Adiantum~ El Aguila Cimitarra    Plantae  Trach~ Poly~ Poly~ Pteri~ SPECIES  
-  4 Adiantum~ El Aguila Cimitarra    Plantae  Trach~ Poly~ Poly~ Pteri~ SPECIES  
-  5 Aechmea ~ El Aguila Cimitarra    Plantae  Trach~ Lili~ Poal~ Brome~ SPECIES  
-  6 Aegiphil~ El Aguila Cimitarra    Plantae  Trach~ Magn~ Lami~ Lamia~ SPECIES  
-  7 Aegiphil~ El Aguila Cimitarra    Plantae  Trach~ Magn~ Lami~ Lamia~ SPECIES  
-  8 Allobate~ El Aguila Cimitarra    Animalia Chord~ Amph~ Anura Aromo~ SPECIES  
-  9 Amaioua ~ El Aguila Cimitarra    Plantae  Trach~ Magn~ Gent~ Rubia~ SPECIES  
- 10 Andinoac~ El Aguila Cimitarra    Animalia Chord~ Acti~ Perc~ Cichl~ SPECIES  
- # ... with 1,245 more rows, and 1 more variable: elevation <int>
dat_tibble %>% print(n = 20)
- # A tibble: 1,255 x 10
-    species   locality  municipality kingdom  phylum class order family taxonRank
-    <chr>     <chr>     <chr>        <chr>    <chr>  <chr> <chr> <chr>  <chr>    
-  1 Aciotis ~ El Aguila Cimitarra    Plantae  Trach~ Magn~ Myrt~ Melas~ SPECIES  
-  2 Adiantum~ El Aguila Cimitarra    Plantae  Trach~ Poly~ Poly~ Pteri~ SPECIES  
-  3 Adiantum~ El Aguila Cimitarra    Plantae  Trach~ Poly~ Poly~ Pteri~ SPECIES  
-  4 Adiantum~ El Aguila Cimitarra    Plantae  Trach~ Poly~ Poly~ Pteri~ SPECIES  
-  5 Aechmea ~ El Aguila Cimitarra    Plantae  Trach~ Lili~ Poal~ Brome~ SPECIES  
-  6 Aegiphil~ El Aguila Cimitarra    Plantae  Trach~ Magn~ Lami~ Lamia~ SPECIES  
-  7 Aegiphil~ El Aguila Cimitarra    Plantae  Trach~ Magn~ Lami~ Lamia~ SPECIES  
-  8 Allobate~ El Aguila Cimitarra    Animalia Chord~ Amph~ Anura Aromo~ SPECIES  
-  9 Amaioua ~ El Aguila Cimitarra    Plantae  Trach~ Magn~ Gent~ Rubia~ SPECIES  
- 10 Andinoac~ El Aguila Cimitarra    Animalia Chord~ Acti~ Perc~ Cichl~ SPECIES  
- 11 Annona g~ El Aguila Cimitarra    Plantae  Trach~ Magn~ Magn~ Annon~ SPECIES  
- 12 Annona m~ El Aguila Cimitarra    Plantae  Trach~ Magn~ Magn~ Annon~ SPECIES  
- 13 Anolis a~ El Aguila Cimitarra    Animalia Chord~ Rept~ Squa~ Dacty~ SPECIES  
- 14 Anolis t~ El Aguila Cimitarra    Animalia Chord~ Rept~ Squa~ Dacty~ SPECIES  
- 15 Apeiba t~ El Aguila Cimitarra    Plantae  Trach~ Magn~ Malv~ Malva~ SPECIES  
- 16 Apterono~ El Aguila Cimitarra    Animalia Chord~ Acti~ Gymn~ Apter~ SPECIES  
- 17 Astyanax~ El Aguila Cimitarra    Animalia Chord~ Acti~ Char~ Chara~ SPECIES  
- 18 Bactris ~ El Aguila Cimitarra    Plantae  Trach~ Lili~ Arec~ Areca~ SPECIES  
- 19 Basilisc~ El Aguila Cimitarra    Animalia Chord~ Rept~ Squa~ Coryt~ SPECIES  
- 20 Boana pu~ El Aguila Cimitarra    Animalia Chord~ Amph~ Anura Hylid~ SPECIES  
- # ... with 1,235 more rows, and 1 more variable: elevation <int>
…
5.3.1 Select

Mediante el paquete dplyr podemos seleccionar variables con la función select()
?select()

select(dat, species) #Seleccionamos el data frame y seguido una variable
- # A tibble: 1,255 x 1
-    species               
-    <chr>                 
-  1 Aciotis circaeifolia  
-  2 Adiantum obliquum     
-  3 Adiantum pulverulentum
-  4 Adiantum wilsonii     
-  5 Aechmea longicuspis   
-  6 Aegiphila cordata     
-  7 Aegiphila panamensis  
-  8 Allobates niputidea   
-  9 Amaioua guianensis    
- 10 Andinoacara latifrons 
- # ... with 1,245 more rows
select(dat, species, locality, municipality) #O más de una variable
- # A tibble: 1,255 x 3
-    species                locality  municipality
-    <chr>                  <chr>     <chr>       
-  1 Aciotis circaeifolia   El Aguila Cimitarra   
-  2 Adiantum obliquum      El Aguila Cimitarra   
-  3 Adiantum pulverulentum El Aguila Cimitarra   
-  4 Adiantum wilsonii      El Aguila Cimitarra   
-  5 Aechmea longicuspis    El Aguila Cimitarra   
-  6 Aegiphila cordata      El Aguila Cimitarra   
-  7 Aegiphila panamensis   El Aguila Cimitarra   
-  8 Allobates niputidea    El Aguila Cimitarra   
-  9 Amaioua guianensis     El Aguila Cimitarra   
- 10 Andinoacara latifrons  El Aguila Cimitarra   
- # ... with 1,245 more rows

Podemos encadenar varias funciones mediante “pipes” o %>% (se puede generar mediante el atajo control+shift+m). Esto es muy útil ya que nos permite realizar tareas con menos línea de código

Empezamos cargando primero los datos por fuera de cualquier función, seguido de un pipe

dat %>% select(species)
- # A tibble: 1,255 x 1
-    species               
-    <chr>                 
-  1 Aciotis circaeifolia  
-  2 Adiantum obliquum     
-  3 Adiantum pulverulentum
-  4 Adiantum wilsonii     
-  5 Aechmea longicuspis   
-  6 Aegiphila cordata     
-  7 Aegiphila panamensis  
-  8 Allobates niputidea   
-  9 Amaioua guianensis    
- 10 Andinoacara latifrons 
- # ... with 1,245 more rows

Ya que tenemos nuestra variable seleccionada, podemos encadenar funciones que trabajen sobre estos datos. Si la función no requiere parametros adicionales, la función se escribe en su forma básica: funcion()

dat %>% select(species) %>% unique() #Nos muestra los valores únicos de esta variable
- # A tibble: 1,000 x 1
-    species               
-    <chr>                 
-  1 Aciotis circaeifolia  
-  2 Adiantum obliquum     
-  3 Adiantum pulverulentum
-  4 Adiantum wilsonii     
-  5 Aechmea longicuspis   
-  6 Aegiphila cordata     
-  7 Aegiphila panamensis  
-  8 Allobates niputidea   
-  9 Amaioua guianensis    
- 10 Andinoacara latifrons 
- # ... with 990 more rows

La estructura básica de este proceso es escoger nuestro set de datos, filtrar y seleccionar las variables que necesitamos y aplicar una función. La complejidad del código dependerá del resultado deseado. A continuación vamos a realizar una función simple en un conjunto de datos específico de nuestro set de datos.

5.3.2 Filter

?filter()

dat %>% filter(municipality == "El Carmen de Chucuri") #Hasta este paso filtramos nuestras observaciones
- # A tibble: 372 x 10
-    species   locality  municipality  kingdom phylum class order family taxonRank
-    <chr>     <chr>     <chr>         <chr>   <chr>  <chr> <chr> <chr>  <chr>    
-  1 Aciotis ~ La Belle~ El Carmen de~ Plantae Trach~ Magn~ Myrt~ Melas~ SPECIES  
-  2 Aciotis ~ La Belle~ El Carmen de~ Plantae Trach~ Magn~ Myrt~ Melas~ SPECIES  
-  3 Adelobot~ La Belle~ El Carmen de~ Plantae Trach~ Magn~ Myrt~ Melas~ SPECIES  
-  4 Aechmea ~ La Belle~ El Carmen de~ Plantae Trach~ Lili~ Poal~ Brome~ SPECIES  
-  5 Aerenea ~ La Belle~ El Carmen de~ Animal~ Arthr~ Inse~ Cole~ Ceram~ SPECIES  
-  6 Alchorne~ La Belle~ El Carmen de~ Plantae Trach~ Magn~ Malp~ Eupho~ SPECIES  
-  7 Allomaie~ La Belle~ El Carmen de~ Plantae Trach~ Magn~ Myrt~ Melas~ SPECIES  
-  8 Allomark~ La Belle~ El Carmen de~ Plantae Trach~ Magn~ Gent~ Apocy~ SPECIES  
-  9 Allophyl~ La Belle~ El Carmen de~ Plantae Trach~ Magn~ Sapi~ Sapin~ SPECIES  
- 10 Amazilia~ La Belle~ El Carmen de~ Animal~ Chord~ Aves  Apod~ Troch~ SPECIES  
- # ... with 362 more rows, and 1 more variable: elevation <dbl>
dat %>% filter(municipality == "El Carmen de Chucuri") %>% select(species) #Seleccionamos las localidades en las cuales se registró la especie Xiphidium caeruleum
- # A tibble: 372 x 1
-    species                     
-    <chr>                       
-  1 Aciotis acuminifolia        
-  2 Aciotis purpurascens        
-  3 Adelobotrys adscendens      
-  4 Aechmea tillandsioides      
-  5 Aerenea impetiginosa        
-  6 Alchornea grandiflora       
-  7 Allomaieta zenufanasana     
-  8 Allomarkgrafia plumeriiflora
-  9 Allophylus excelsus         
- 10 Amazilia amabilis           
- # ... with 362 more rows
dat %>% filter(municipality == "El Carmen de Chucuri") %>% select(species) %>% unique() #Y obtenemos los nombres únicos de las especies que están presentes en el municipio de El carmen de Chuchuri
- # A tibble: 357 x 1
-    species                     
-    <chr>                       
-  1 Aciotis acuminifolia        
-  2 Aciotis purpurascens        
-  3 Adelobotrys adscendens      
-  4 Aechmea tillandsioides      
-  5 Aerenea impetiginosa        
-  6 Alchornea grandiflora       
-  7 Allomaieta zenufanasana     
-  8 Allomarkgrafia plumeriiflora
-  9 Allophylus excelsus         
- 10 Amazilia amabilis           
- # ... with 347 more rows
…
Ya que nuestro data frame contiene listas dentro, podemos acceder a ella mediante corchetes []:

Podemos extraer las variables mediante $

clase_datos$class
-  [1] "Actinopterygii" "Amphibia"       "Aves"           "Cycadopsida"   
-  [5] "Elasmobranchii" "Insecta"        "Liliopsida"     "Lycopodiopsida"
-  [9] "Magnoliopsida"  "Mammalia"       "Pinopsida"      "Polypodiopsida"
- [13] "Reptilia"
clase_datos$data
- [[1]]
- # A tibble: 107 x 9
-    species locality municipality kingdom phylum order family taxonRank elevation
-    <chr>   <chr>    <chr>        <chr>   <chr>  <chr> <chr>  <chr>         <dbl>
-  1 Andino~ El Agui~ Cimitarra    Animal~ Chord~ Perc~ Cichl~ SPECIES         122
-  2 Aptero~ El Agui~ Cimitarra    Animal~ Chord~ Gymn~ Apter~ SPECIES         122
-  3 Astyan~ El Agui~ Cimitarra    Animal~ Chord~ Char~ Chara~ SPECIES         122
-  4 Brachy~ El Agui~ Cimitarra    Animal~ Chord~ Gymn~ Hypop~ SPECIES         116
-  5 Bunoce~ El Agui~ Cimitarra    Animal~ Chord~ Silu~ Aspre~ SPECIES         116
-  6 Creagr~ El Agui~ Cimitarra    Animal~ Chord~ Char~ Chara~ SPECIES         129
-  7 Dasylo~ El Agui~ Cimitarra    Animal~ Chord~ Silu~ Loric~ SPECIES         122
-  8 Gaster~ El Agui~ Cimitarra    Animal~ Chord~ Char~ Gaste~ SPECIES         122
-  9 Geopha~ El Agui~ Cimitarra    Animal~ Chord~ Perc~ Cichl~ SPECIES         129
- 10 Gephyr~ El Agui~ Cimitarra    Animal~ Chord~ Char~ Chara~ SPECIES         122
- # ... with 97 more rows
- 
- [[2]]
- # A tibble: 46 x 9
-    species locality municipality kingdom phylum order family taxonRank elevation
-    <chr>   <chr>    <chr>        <chr>   <chr>  <chr> <chr>  <chr>         <dbl>
-  1 Alloba~ El Agui~ Cimitarra    Animal~ Chord~ Anura Aromo~ SPECIES         155
-  2 Boana ~ El Agui~ Cimitarra    Animal~ Chord~ Anura Hylid~ SPECIES         124
-  3 Crauga~ El Agui~ Cimitarra    Animal~ Chord~ Anura Craug~ SPECIES         151
-  4 Dendro~ El Agui~ Cimitarra    Animal~ Chord~ Anura Dendr~ SPECIES         138
-  5 Dendro~ El Agui~ Cimitarra    Animal~ Chord~ Anura Hylid~ SPECIES         127
-  6 Engyst~ El Agui~ Cimitarra    Animal~ Chord~ Anura Lepto~ SPECIES         141
-  7 Leptod~ El Agui~ Cimitarra    Animal~ Chord~ Anura Lepto~ SPECIES         149
-  8 Leptod~ El Agui~ Cimitarra    Animal~ Chord~ Anura Lepto~ SPECIES         146
-  9 Leptod~ El Agui~ Cimitarra    Animal~ Chord~ Anura Lepto~ SPECIES         138
- 10 Leptod~ El Agui~ Cimitarra    Animal~ Chord~ Anura Lepto~ SPECIES         170
- # ... with 36 more rows
- 
- [[3]]
- # A tibble: 155 x 9
-    species locality municipality kingdom phylum order family taxonRank elevation
-    <chr>   <chr>    <chr>        <chr>   <chr>  <chr> <chr>  <chr>         <dbl>
-  1 Amazil~ Guineal~ Cimitarra    Animal~ Chord~ Apod~ Troch~ SPECIES         442
-  2 Automo~ Guineal~ Cimitarra    Animal~ Chord~ Pass~ Furna~ SPECIES         433
-  3 Chalyb~ Guineal~ Cimitarra    Animal~ Chord~ Apod~ Troch~ SPECIES         438
-  4 Damoph~ Guineal~ Cimitarra    Animal~ Chord~ Apod~ Troch~ SPECIES         425
-  5 Dendro~ Guineal~ Cimitarra    Animal~ Chord~ Pass~ Furna~ SPECIES         450
-  6 Epinec~ Guineal~ Cimitarra    Animal~ Chord~ Pass~ Thamn~ SPECIES         431
-  7 Glauci~ Guineal~ Cimitarra    Animal~ Chord~ Apod~ Troch~ SPECIES         425
-  8 Glypho~ Guineal~ Cimitarra    Animal~ Chord~ Pass~ Furna~ SPECIES         433
-  9 Habia ~ Guineal~ Cimitarra    Animal~ Chord~ Pass~ Cardi~ SPECIES         444
- 10 Hemith~ Guineal~ Cimitarra    Animal~ Chord~ Pass~ Thrau~ SPECIES         375
- # ... with 145 more rows
- 
- [[4]]
- # A tibble: 1 x 9
-   species  locality municipality kingdom phylum order family taxonRank elevation
-   <chr>    <chr>    <chr>        <chr>   <chr>  <chr> <chr>  <chr>         <dbl>
- 1 Zamia i~ El Agui~ Cimitarra    Plantae Trach~ Cyca~ Zamia~ SPECIES         159
- 
- [[5]]
- # A tibble: 1 x 9
-   species  locality municipality kingdom phylum order family taxonRank elevation
-   <chr>    <chr>    <chr>        <chr>   <chr>  <chr> <chr>  <chr>         <dbl>
- 1 Potamot~ El Agui~ Cimitarra    Animal~ Chord~ Myli~ Potam~ SPECIES         136
- 
- [[6]]
- # A tibble: 102 x 9
-    species locality municipality kingdom phylum order family taxonRank elevation
-    <chr>   <chr>    <chr>        <chr>   <chr>  <chr> <chr>  <chr>         <dbl>
-  1 Canthi~ El Agui~ Cimitarra    Animal~ Arthr~ Cole~ Scara~ SPECIES         183
-  2 Cantho~ El Agui~ Cimitarra    Animal~ Arthr~ Cole~ Scara~ SPECIES         174
-  3 Cantho~ El Agui~ Cimitarra    Animal~ Arthr~ Cole~ Scara~ SPECIES         184
-  4 Cantho~ El Agui~ Cimitarra    Animal~ Arthr~ Cole~ Scara~ SPECIES         111
-  5 Cantho~ El Agui~ Cimitarra    Animal~ Arthr~ Cole~ Scara~ SPECIES         186
-  6 Cantho~ El Agui~ Cimitarra    Animal~ Arthr~ Cole~ Scara~ SPECIES         178
-  7 Coprop~ El Agui~ Cimitarra    Animal~ Arthr~ Cole~ Scara~ SPECIES         160
-  8 Deltoc~ El Agui~ Cimitarra    Animal~ Arthr~ Cole~ Scara~ SPECIES         182
-  9 Deltoc~ El Agui~ Cimitarra    Animal~ Arthr~ Cole~ Scara~ SPECIES         199
- 10 Deltoc~ El Agui~ Cimitarra    Animal~ Arthr~ Cole~ Scara~ SPECIES         187
- # ... with 92 more rows
- 
- [[7]]
- # A tibble: 69 x 9
-    species locality municipality kingdom phylum order family taxonRank elevation
-    <chr>   <chr>    <chr>        <chr>   <chr>  <chr> <chr>  <chr>         <dbl>
-  1 Aechme~ El Agui~ Cimitarra    Plantae Trach~ Poal~ Brome~ SPECIES         158
-  2 Bactri~ El Agui~ Cimitarra    Plantae Trach~ Arec~ Areca~ SPECIES         158
-  3 Costus~ El Agui~ Cimitarra    Plantae Trach~ Zing~ Costa~ SPECIES         159
-  4 Dieffe~ El Agui~ Cimitarra    Plantae Trach~ Alis~ Arace~ SPECIES         159
-  5 Diosco~ El Agui~ Cimitarra    Plantae Trach~ Dios~ Diosc~ SPECIES         158
-  6 Euterp~ El Agui~ Cimitarra    Plantae Trach~ Arec~ Areca~ SPECIES         159
-  7 Flosco~ El Agui~ Cimitarra    Plantae Trach~ Comm~ Comme~ SPECIES         158
-  8 Geonom~ El Agui~ Cimitarra    Plantae Trach~ Arec~ Areca~ SPECIES         158
-  9 Goeppe~ El Agui~ Cimitarra    Plantae Trach~ Zing~ Maran~ SPECIES         158
- 10 Guzman~ El Agui~ Cimitarra    Plantae Trach~ Poal~ Brome~ SPECIES         158
- # ... with 59 more rows
- 
- [[8]]
- # A tibble: 6 x 9
-   species  locality municipality kingdom phylum order family taxonRank elevation
-   <chr>    <chr>    <chr>        <chr>   <chr>  <chr> <chr>  <chr>         <dbl>
- 1 Lycopod~ La Sali~ Santa Barba~ Plantae Trach~ Lyco~ Lycop~ SPECIES        3088
- 2 Palhinh~ La Sali~ Santa Barba~ Plantae Trach~ Lyco~ Lycop~ SPECIES        2550
- 3 Phlegma~ La Sali~ Santa Barba~ Plantae Trach~ Lyco~ Lycop~ SPECIES        2893
- 4 Phlegma~ La Sali~ Santa Barba~ Plantae Trach~ Lyco~ Lycop~ SPECIES        2109
- 5 Phlegma~ La Sali~ Santa Barba~ Plantae Trach~ Lyco~ Lycop~ SPECIES        2625
- 6 Selagin~ La Sali~ Santa Barba~ Plantae Trach~ Sela~ Selag~ SPECIES        2161
- 
- [[9]]
- # A tibble: 652 x 9
-    species locality municipality kingdom phylum order family taxonRank elevation
-    <chr>   <chr>    <chr>        <chr>   <chr>  <chr> <chr>  <chr>         <dbl>
-  1 Acioti~ El Agui~ Cimitarra    Plantae Trach~ Myrt~ Melas~ SPECIES         158
-  2 Aegiph~ El Agui~ Cimitarra    Plantae Trach~ Lami~ Lamia~ SPECIES         158
-  3 Aegiph~ El Agui~ Cimitarra    Plantae Trach~ Lami~ Lamia~ SPECIES         158
-  4 Amaiou~ El Agui~ Cimitarra    Plantae Trach~ Gent~ Rubia~ SPECIES         158
-  5 Annona~ El Agui~ Cimitarra    Plantae Trach~ Magn~ Annon~ SPECIES         158
-  6 Annona~ El Agui~ Cimitarra    Plantae Trach~ Magn~ Annon~ SPECIES         159
-  7 Apeiba~ El Agui~ Cimitarra    Plantae Trach~ Malv~ Malva~ SPECIES         159
-  8 Byrson~ El Agui~ Cimitarra    Plantae Trach~ Malp~ Malpi~ SPECIES         158
-  9 Cappar~ El Agui~ Cimitarra    Plantae Trach~ Bras~ Cappa~ SPECIES         159
- 10 Cayapo~ El Agui~ Cimitarra    Plantae Trach~ Cucu~ Cucur~ SPECIES         159
- # ... with 642 more rows
…
-  9 Pecari~ La Bell~ El Carmen d~ Animal~ Chord~ Arti~ Tayas~ SPECIES         817
- 10 Procyo~ La Bell~ El Carmen d~ Animal~ Chord~ Carn~ Procy~ SPECIES         784
- 11 Tamand~ La Bell~ El Carmen d~ Animal~ Chord~ Pilo~ Myrme~ SPECIES         873
- 12 Uroder~ La Bell~ El Carmen d~ Animal~ Chord~ Chir~ Phyll~ SPECIES         885
- 13 Nephel~ Salinas  Santa Barba~ Animal~ Chord~ Rode~ Crice~ SPECIES        2639
- 14 Sturni~ Salinas  Santa Barba~ Animal~ Chord~ Chir~ Phyll~ SPECIES        2505
- 
- [[11]]
- # A tibble: 1 x 9
-   species  locality municipality kingdom phylum order family taxonRank elevation
-   <chr>    <chr>    <chr>        <chr>   <chr>  <chr> <chr>  <chr>         <dbl>
- 1 Podocar~ La Bell~ El Carmen d~ Plantae Trach~ Pina~ Podoc~ SPECIES         946
- 
- [[12]]
- # A tibble: 69 x 9
-    species locality municipality kingdom phylum order family taxonRank elevation
-    <chr>   <chr>    <chr>        <chr>   <chr>  <chr> <chr>  <chr>         <dbl>
-  1 Adiant~ El Agui~ Cimitarra    Plantae Trach~ Poly~ Pteri~ SPECIES         158
-  2 Adiant~ El Agui~ Cimitarra    Plantae Trach~ Poly~ Pteri~ SPECIES         159
-  3 Adiant~ El Agui~ Cimitarra    Plantae Trach~ Poly~ Pteri~ SPECIES         158
-  4 Tectar~ El Agui~ Cimitarra    Plantae Trach~ Poly~ Tecta~ SPECIES         159
-  5 Microg~ Guineal~ Cimitarra    Plantae Trach~ Poly~ Polyp~ SPECIES         442
-  6 Pleope~ Guineal~ Cimitarra    Plantae Trach~ Poly~ Polyp~ SPECIES         442
-  7 Tectar~ Guineal~ Cimitarra    Plantae Trach~ Poly~ Tecta~ SPECIES         442
-  8 Alansm~ La Sali~ Santa Barba~ Plantae Trach~ Poly~ Polyp~ SPECIES        2893
-  9 Alansm~ La Sali~ Santa Barba~ Plantae Trach~ Poly~ Polyp~ SPECIES        2567
- 10 Amauro~ La Sali~ Santa Barba~ Plantae Trach~ Poly~ Thely~ SPECIES        2387
- # ... with 59 more rows
…
