…
class(dat_conv)
- [1] "data.frame"
dat_tibble <- as_tibble(dat_conv)

class(dat_tibble)
- [1] "tbl_df"     "tbl"        "data.frame"
```

Hay dos diferencias entre un tibble y un data.frame convencional: el método de impresión o print() y la forma de obtener subconjuntos.


```r
dat_tibble #Tibble nos muestra hasta 10 observaciones para mantener la consola menos saturada. En caso de necesitar mas de 10 observaciones, puede indicarlo de la siguiente manera
- # A tibble: 1,255 x 11
-    species locality municipio kingdom phylum class order family genus taxonRank
-    <chr>   <chr>    <chr>     <chr>   <chr>  <chr> <chr> <chr>  <chr> <chr>    
-  1 Acioti~ Vereda ~ Cimitarra Plantae Trach~ Magn~ Myrt~ Melas~ Acio~ SPECIES  
-  2 Adiant~ Vereda ~ Cimitarra Plantae Trach~ Poly~ Poly~ Pteri~ Adia~ SPECIES  
-  3 Adiant~ Vereda ~ Cimitarra Plantae Trach~ Poly~ Poly~ Pteri~ Adia~ SPECIES  
-  4 Adiant~ Vereda ~ Cimitarra Plantae Trach~ Poly~ Poly~ Pteri~ Adia~ SPECIES  
-  5 Aechme~ Vereda ~ Cimitarra Plantae Trach~ Lili~ Poal~ Brome~ Aech~ SPECIES  
-  6 Aegiph~ Vereda ~ Cimitarra Plantae Trach~ Magn~ Lami~ Lamia~ Aegi~ SPECIES  
-  7 Aegiph~ Vereda ~ Cimitarra Plantae Trach~ Magn~ Lami~ Lamia~ Aegi~ SPECIES  
-  8 Alloba~ Vereda ~ Cimitarra Animal~ Chord~ Amph~ Anura Aromo~ Allo~ SPECIES  
-  9 Amaiou~ Vereda ~ Cimitarra Plantae Trach~ Magn~ Gent~ Rubia~ Amai~ SPECIES  
- 10 Andino~ Vereda ~ Cimitarra Animal~ Chord~ Acti~ Perc~ Cichl~ Andi~ SPECIES  
- # ... with 1,245 more rows, and 1 more variable: elevation <int>
dat_tibble %>% print(n = 20)
- # A tibble: 1,255 x 11
-    species locality municipio kingdom phylum class order family genus taxonRank
-    <chr>   <chr>    <chr>     <chr>   <chr>  <chr> <chr> <chr>  <chr> <chr>    
-  1 Acioti~ Vereda ~ Cimitarra Plantae Trach~ Magn~ Myrt~ Melas~ Acio~ SPECIES  
-  2 Adiant~ Vereda ~ Cimitarra Plantae Trach~ Poly~ Poly~ Pteri~ Adia~ SPECIES  
-  3 Adiant~ Vereda ~ Cimitarra Plantae Trach~ Poly~ Poly~ Pteri~ Adia~ SPECIES  
-  4 Adiant~ Vereda ~ Cimitarra Plantae Trach~ Poly~ Poly~ Pteri~ Adia~ SPECIES  
-  5 Aechme~ Vereda ~ Cimitarra Plantae Trach~ Lili~ Poal~ Brome~ Aech~ SPECIES  
-  6 Aegiph~ Vereda ~ Cimitarra Plantae Trach~ Magn~ Lami~ Lamia~ Aegi~ SPECIES  
-  7 Aegiph~ Vereda ~ Cimitarra Plantae Trach~ Magn~ Lami~ Lamia~ Aegi~ SPECIES  
-  8 Alloba~ Vereda ~ Cimitarra Animal~ Chord~ Amph~ Anura Aromo~ Allo~ SPECIES  
-  9 Amaiou~ Vereda ~ Cimitarra Plantae Trach~ Magn~ Gent~ Rubia~ Amai~ SPECIES  
- 10 Andino~ Vereda ~ Cimitarra Animal~ Chord~ Acti~ Perc~ Cichl~ Andi~ SPECIES  
- 11 Annona~ Vereda ~ Cimitarra Plantae Trach~ Magn~ Magn~ Annon~ Anno~ SPECIES  
- 12 Annona~ Vereda ~ Cimitarra Plantae Trach~ Magn~ Magn~ Annon~ Anno~ SPECIES  
- 13 Anolis~ Vereda ~ Cimitarra Animal~ Chord~ Rept~ Squa~ Dacty~ Anol~ SPECIES  
- 14 Anolis~ Vereda ~ Cimitarra Animal~ Chord~ Rept~ Squa~ Dacty~ Anol~ SPECIES  
- 15 Apeiba~ Vereda ~ Cimitarra Plantae Trach~ Magn~ Malv~ Malva~ Apei~ SPECIES  
- 16 Aptero~ Vereda ~ Cimitarra Animal~ Chord~ Acti~ Gymn~ Apter~ Apte~ SPECIES  
- 17 Astyan~ Vereda ~ Cimitarra Animal~ Chord~ Acti~ Char~ Chara~ Asty~ SPECIES  
- 18 Bactri~ Vereda ~ Cimitarra Plantae Trach~ Lili~ Arec~ Areca~ Bact~ SPECIES  
- 19 Basili~ Vereda ~ Cimitarra Animal~ Chord~ Rept~ Squa~ Coryt~ Basi~ SPECIES  
- 20 Boana ~ Vereda ~ Cimitarra Animal~ Chord~ Amph~ Anura Hylid~ Boana SPECIES  
- # ... with 1,235 more rows, and 1 more variable: elevation <int>
```
…
***

### Select

Mediante el paquete dplyr podemos seleccionar variables con la función select()
?select()


```r
select(dat, species) #Mediante select seleccionamos el dataframe y seguido de esto, las variables
- # A tibble: 1,255 x 1
-    species               
-    <chr>                 
-  1 Aciotis circaeifolia  
-  2 Adiantum obliquum     
-  3 Adiantum pulverulentum
-  4 Adiantum wilsonii     
-  5 Aechmea longicuspis   
-  6 Aegiphila cordata     
-  7 Aegiphila panamensis  
-  8 Allobates niputidea   
-  9 Amaioua guianensis    
- 10 Andinoacara latifrons 
- # ... with 1,245 more rows
select(dat, species, locality, municipio) #Podemos seleccionar mas de una variable
- # A tibble: 1,255 x 3
-    species                locality         municipio
-    <chr>                  <fct>            <fct>    
-  1 Aciotis circaeifolia   Vereda El Aguila Cimitarra
-  2 Adiantum obliquum      Vereda El Aguila Cimitarra
-  3 Adiantum pulverulentum Vereda El Aguila Cimitarra
-  4 Adiantum wilsonii      Vereda El Aguila Cimitarra
-  5 Aechmea longicuspis    Vereda El Aguila Cimitarra
-  6 Aegiphila cordata      Vereda El Aguila Cimitarra
-  7 Aegiphila panamensis   Vereda El Aguila Cimitarra
-  8 Allobates niputidea    Vereda El Aguila Cimitarra
-  9 Amaioua guianensis     Vereda El Aguila Cimitarra
- 10 Andinoacara latifrons  Vereda El Aguila Cimitarra
- # ... with 1,245 more rows
```

Podemos encadenar varias funciones mediante "pipes" o %>% (se puede generar mediante el atajo control+shift+m). Esto es muy útil ya que nos permite realizar tareas con menos línea de código, lo que nos hace mas eficientes y nos ahorra tiempo

Empezamos cargando primero los datos por fuera de cualquier funcion, seguido de un pipe


```r
dat %>% select(species)
- # A tibble: 1,255 x 1
-    species               
-    <chr>                 
-  1 Aciotis circaeifolia  
-  2 Adiantum obliquum     
-  3 Adiantum pulverulentum
-  4 Adiantum wilsonii     
-  5 Aechmea longicuspis   
-  6 Aegiphila cordata     
-  7 Aegiphila panamensis  
-  8 Allobates niputidea   
-  9 Amaioua guianensis    
- 10 Andinoacara latifrons 
- # ... with 1,245 more rows
```

Ya que tenemos nuestra variable seleccionada, podemos encadenar funciones que trabajen sobre estos datos. Si la función no requiere parametros adicionales, la función se escribe en su forma básica: funcion()


```r
dat %>% select(species) %>% unique() #Nos muestra los valores unicos de esta variable
- # A tibble: 1,000 x 1
-    species               
-    <chr>                 
-  1 Aciotis circaeifolia  
-  2 Adiantum obliquum     
-  3 Adiantum pulverulentum
-  4 Adiantum wilsonii     
-  5 Aechmea longicuspis   
-  6 Aegiphila cordata     
-  7 Aegiphila panamensis  
-  8 Allobates niputidea   
-  9 Amaioua guianensis    
- 10 Andinoacara latifrons 
- # ... with 990 more rows
```

La estructura básica de este proceso es escoger nuestro set de datos, filtrar y seleccionar las variables que necesitamos y aplicar una funcion. La complejidad del codigo dependera del resultado deseado. A continuacion vamos a realizar una funcion simple en un conjunto de datos especifico de nuestro set de datos.

***

### Filter

?filter()


```r
dat %>% filter(municipio == "El Carmen de Chucuri") #Hasta este paso filtramos nuestras observaciones
- # A tibble: 372 x 11
-    species locality municipio kingdom phylum class order family genus taxonRank
-    <chr>   <fct>    <fct>     <fct>   <chr>  <chr> <chr> <chr>  <chr> <chr>    
-  1 Acioti~ Vereda ~ El Carme~ Plantae Trach~ Magn~ Myrt~ Melas~ Acio~ SPECIES  
-  2 Acioti~ Vereda ~ El Carme~ Plantae Trach~ Magn~ Myrt~ Melas~ Acio~ SPECIES  
-  3 Adelob~ Vereda ~ El Carme~ Plantae Trach~ Magn~ Myrt~ Melas~ Adel~ SPECIES  
-  4 Aechme~ Vereda ~ El Carme~ Plantae Trach~ Lili~ Poal~ Brome~ Aech~ SPECIES  
-  5 Aerene~ Vereda ~ El Carme~ Animal~ Arthr~ Inse~ Cole~ Ceram~ Aere~ SPECIES  
-  6 Alchor~ Vereda ~ El Carme~ Plantae Trach~ Magn~ Malp~ Eupho~ Alch~ SPECIES  
-  7 Alloma~ Vereda ~ El Carme~ Plantae Trach~ Magn~ Myrt~ Melas~ Allo~ SPECIES  
-  8 Alloma~ Vereda ~ El Carme~ Plantae Trach~ Magn~ Gent~ Apocy~ Allo~ SPECIES  
-  9 Alloph~ Vereda ~ El Carme~ Plantae Trach~ Magn~ Sapi~ Sapin~ Allo~ SPECIES  
- 10 Amazil~ Vereda ~ El Carme~ Animal~ Chord~ Aves  Apod~ Troch~ Amaz~ SPECIES  
- # ... with 362 more rows, and 1 more variable: elevation <dbl>
dat %>% filter(municipio == "El Carmen de Chucuri") %>% select(species) #Seleccionamos las localidades en las cuales se registro la especie Xiphidium caeruleum
- # A tibble: 372 x 1
-    species                     
-    <chr>                       
-  1 Aciotis acuminifolia        
-  2 Aciotis purpurascens        
-  3 Adelobotrys adscendens      
-  4 Aechmea tillandsioides      
-  5 Aerenea impetiginosa        
-  6 Alchornea grandiflora       
-  7 Allomaieta zenufanasana     
-  8 Allomarkgrafia plumeriiflora
-  9 Allophylus excelsus         
- 10 Amazilia amabilis           
- # ... with 362 more rows
dat %>% filter(municipio == "El Carmen de Chucuri") %>% select(species) %>% unique() #Y obtenemos los nombres unicos de las especies que estan presentes en el municipio de El carmen de Chuchuri
- # A tibble: 357 x 1
-    species                     
-    <chr>                       
-  1 Aciotis acuminifolia        
-  2 Aciotis purpurascens        
-  3 Adelobotrys adscendens      
-  4 Aechmea tillandsioides      
-  5 Aerenea impetiginosa        
-  6 Alchornea grandiflora       
-  7 Allomaieta zenufanasana     
-  8 Allomarkgrafia plumeriiflora
-  9 Allophylus excelsus         
- 10 Amazilia amabilis           
- # ... with 347 more rows
…
